.Xil/Vivado-3756-ECEB-4022-14/hw_ila_data_1/zip_work/waveform.vcd
$date
        2019-Apr-23 11:57:27
$end
$version
        Vivado v2018.3 (64-bit)
$end
$timescale
        1ps
$end
$scope module dut $end
$var reg 1 " SPI_CLK_OBUF $end
$var reg 9 # State_copy [8:0] $end
$var reg 1 , SPI_RESET_OBUF $end
$var reg 1 - SPI_MOSI_OBUF $end
$var reg 1 . SPI_MISO_IBUF $end
$var reg 8 / data_input [7:0] $end
$var reg 8 7 data_output [7:0] $end
$var reg 2 ? rw_flag [1:0] $end
$var reg 1 A SPI_CS_OBUF $end
$var reg 1 B TrigerEvent $end
$var reg 1 C SPI_gen_CLK $end
$var reg 1 D _TRIGGER $end
$var reg 1 E _WINDOW $end
$var reg 1 F _GAP $end
$upscope $end
$enddefinitions $end
#0
$dumpvars
0"
b0 #
1,
0-
1.
b0 /
b0 7
b1 ?
1A
1B
1C
1D
1E
0F
$end
#1
0C
#2
b1 #
1C
#3
0C
#4
b10 #
1C
#5
0C
#6
b11 #
0A
1C
#7
0C
#8
b100 #
1C
#9
0C
#10
1"
b101 #
1C
#11
0C
#12
b110 #
1C
#13
0C
#14
0"
b111 #
1C
#15
0C
#16
b1000 #
1C
#17
0C
#18
1"
b1001 #
1C
#19
0C
#20
b1010 #
1C
#21
0C
#22
0"
b1011 #
1C
#23
0C
#24
b1100 #
1C
#25
0C
#26
1"
b1101 #
1C
#27
0C
#28
b1110 #
1C
#29
0C
#30
0"
b1111 #
1-
1C
#31
0C
#32
b10000 #
1C
#33
0C
#34
1"
b10001 #
1C
#35
0C
#36
b10010 #
1C
#37
0C
#38
0"
b10011 #
0-
1C
#39
0C
#40
b10100 #
1C
#41
0C
#42
1"
b10101 #
1C
#43
0C
#44
b10110 #
1C
#45
0C
#46
0"
b10111 #
1C
#47
0C
#48
b11000 #
1C
#49
0C
#50
1"
b11001 #
1C
#51
0C
#52
b11010 #
1C
#53
0C
#54
0"
b11011 #
1-
1C
#55
0C
#56
b11100 #
1C
#57
0C
#58
1"
b11101 #
1C
#59
0C
#60
b11110 #
1C
#61
0C
#62
0"
b11111 #
0-
1C
#63
0C
#64
b100000 #
1C
#65
0C
#66
1"
b100001 #
1C
#67
0C
#68
b100010 #
1C
#69
0C
#70
0"
b100011 #
1C
#71
0C
#72
b100100 #
1C
#73
0C
#74
1"
b100101 #
1C
#75
0C
#76
b100110 #
1C
#77
0C
#78
0"
b100111 #
1C
#79
0C
#80
b101000 #
1C
#81
0C
#82
1"
b101001 #
1C
#83
0C
#84
b101010 #
1C
#85
0C
#86
0"
b101011 #
1C
#87
0C
#88
b101100 #
1C
#89
0C
#90
1"
b101101 #
1C
#91
0C
#92
b101110 #
1C
#93
0C
#94
0"
b101111 #
1C
#95
0C
#96
b110000 #
1C
#97
0C
#98
1"
b110001 #
1C
#99
0C
#100
b110010 #
1C
#101
0C
#102
0"
b110011 #
1C
#103
0C
#104
b110100 #
1C
#105
0C
#106
1"
b110101 #
1C
#107
0C
#108
b110110 #
1C
#109
0C
#110
0"
b110111 #
1C
#111
0C
#112
b111000 #
1C
#113
0C
#114
1"
b111001 #
1C
#115
0C
#116
b111010 #
1C
#117
0C
#118
0"
b111011 #
1C
#119
0C
#120
b111100 #
1C
#121
0C
#122
1"
b111101 #
1C
#123
0C
#124
b111110 #
1C
#125
0C
#126
0"
b111111 #
1C
#127
0C
#128
b1000000 #
1C
#129
0C
#130
1"
b1000001 #
1C
#131
0C
#132
b1000010 #
1C
#133
0C
#134
0"
b1000011 #
1C
#135
0C
#136
b1000100 #
1C
#137
0C
#138
b1000101 #
1A
1C
#139
0C
#140
b1000110 #
1C
#141
0C
#142
b0 #
1C
#143
0C
#144
b1 #
1C
#145
0C
#146
b10 #
1C
#147
0C
#148
b11 #
0A
1C
#149
0C
#150
b100 #
1C
#151
0C
#152
1"
b101 #
1C
#153
0C
#154
b110 #
1C
#155
0C
#156
0"
b111 #
1C
#157
0C
#158
b1000 #
1C
#159
0C
#160
1"
b1001 #
1C
#161
0C
#162
b1010 #
1C
#163
0C
#164
0"
b1011 #
1C
#165
0C
#166
b1100 #
1C
#167
0C
#168
1"
b1101 #
1C
#169
0C
#170
b1110 #
1C
#171
0C
#172
0"
b1111 #
1-
1C
#173
0C
#174
b10000 #
1C
#175
0C
#176
1"
b10001 #
1C
#177
0C
#178
b10010 #
1C
#179
0C
#180
0"
b10011 #
0-
1C
#181
0C
#182
b10100 #
1C
#183
0C
#184
1"
b10101 #
1C
#185
0C
#186
b10110 #
1C
#187
0C
#188
0"
b10111 #
1C
#189
0C
#190
b11000 #
1C
#191
0C
#192
1"
b11001 #
1C
#193
0C
#194
b11010 #
1C
#195
0C
#196
0"
b11011 #
1-
1C
#197
0C
#198
b11100 #
1C
#199
0C
#200
1"
b11101 #
1C
#201
0C
#202
b11110 #
1C
#203
0C
#204
0"
b11111 #
0-
1C
#205
0C
#206
b100000 #
1C
#207
0C
#208
1"
b100001 #
1C
#209
0C
#210
b100010 #
1C
#211
0C
#212
0"
b100011 #
1C
#213
0C
#214
b100100 #
1C
#215
0C
#216
1"
b100101 #
1C
#217
0C
#218
b100110 #
1C
#219
0C
#220
0"
b100111 #
1C
#221
0C
#222
b101000 #
1C
#223
0C
#224
1"
b101001 #
1C
#225
0C
#226
b101010 #
1C
#227
0C
#228
0"
b101011 #
1C
#229
0C
#230
b101100 #
1C
#231
0C
#232
1"
b101101 #
1C
#233
0C
#234
b101110 #
1C
#235
0C
#236
0"
b101111 #
1C
#237
0C
#238
b110000 #
1C
#239
0C
#240
1"
b110001 #
1C
#241
0C
#242
b110010 #
1C
#243
0C
#244
0"
b110011 #
1C
#245
0C
#246
b110100 #
1C
#247
0C
#248
1"
b110101 #
1C
#249
0C
#250
b110110 #
1C
#251
0C
#252
0"
b110111 #
1C
#253
0C
#254
b111000 #
1C
#255
0C
#256
1"
b111001 #
1C
#257
0C
#258
b111010 #
1C
#259
0C
#260
0"
b111011 #
1C
#261
0C
#262
b111100 #
1C
#263
0C
#264
1"
b111101 #
1C
#265
0C
#266
b111110 #
1C
#267
0C
#268
0"
b111111 #
1C
#269
0C
#270
b1000000 #
1C
#271
0C
#272
1"
b1000001 #
1C
#273
0C
#274
b1000010 #
1C
#275
0C
#276
0"
b1000011 #
1C
#277
0C
#278
b1000100 #
1C
#279
0C
#280
b1000101 #
1A
1C
#281
0C
#282
b1000110 #
1C
#283
0C
#284
b0 #
1C
#285
0C
#286
b1 #
1C
#287
0C
#288
b10 #
1C
#289
0C
#290
b11 #
0A
1C
#291
0C
#292
b100 #
1C
#293
0C
#294
1"
b101 #
1C
#295
0C
#296
b110 #
1C
#297
0C
#298
0"
b111 #
1C
#299
0C
#300
b1000 #
1C
#301
0C
#302
1"
b1001 #
1C
#303
0C
#304
b1010 #
1C
#305
0C
#306
0"
b1011 #
1C
#307
0C
#308
b1100 #
1C
#309
0C
#310
1"
b1101 #
1C
#311
0C
#312
b1110 #
1C
#313
0C
#314
0"
b1111 #
1-
1C
#315
0C
#316
b10000 #
1C
#317
0C
#318
1"
b10001 #
1C
#319
0C
#320
b10010 #
1C
#321
0C
#322
0"
b10011 #
0-
1C
#323
0C
#324
b10100 #
1C
#325
0C
#326
1"
b10101 #
1C
#327
0C
#328
b10110 #
1C
#329
0C
#330
0"
b10111 #
1C
#331
0C
#332
b11000 #
1C
#333
0C
#334
1"
b11001 #
1C
#335
0C
#336
b11010 #
1C
#337
0C
#338
0"
b11011 #
1-
1C
#339
0C
#340
b11100 #
1C
#341
0C
#342
1"
b11101 #
1C
#343
0C
#344
b11110 #
1C
#345
0C
#346
0"
b11111 #
0-
1C
#347
0C
#348
b100000 #
1C
#349
0C
#350
1"
b100001 #
1C
#351
0C
#352
b100010 #
1C
#353
0C
#354
0"
b100011 #
1C
#355
0C
#356
b100100 #
1C
#357
0C
#358
1"
b100101 #
1C
#359
0C
#360
b100110 #
1C
#361
0C
#362
0"
b100111 #
1C
#363
0C
#364
b101000 #
1C
#365
0C
#366
1"
b101001 #
1C
#367
0C
#368
b101010 #
1C
#369
0C
#370
0"
b101011 #
1C
#371
0C
#372
b101100 #
1C
#373
0C
#374
1"
b101101 #
1C
#375
0C
#376
b101110 #
1C
#377
0C
#378
0"
b101111 #
1C
#379
0C
#380
b110000 #
1C
#381
0C
#382
1"
b110001 #
1C
#383
0C
#384
b110010 #
1C
#385
0C
#386
0"
b110011 #
1C
#387
0C
#388
b110100 #
1C
#389
0C
#390
1"
b110101 #
1C
#391
0C
#392
b110110 #
1C
#393
0C
#394
0"
b110111 #
1C
#395
0C
#396
b111000 #
1C
#397
0C
#398
1"
b111001 #
1C
#399
0C
#400
b111010 #
1C
#401
0C
#402
0"
b111011 #
1C
#403
0C
#404
b111100 #
1C
#405
0C
#406
1"
b111101 #
1C
#407
0C
#408
b111110 #
1C
#409
0C
#410
0"
b111111 #
1C
#411
0C
#412
b1000000 #
1C
#413
0C
#414
1"
b1000001 #
1C
#415
0C
#416
b1000010 #
1C
#417
0C
#418
0"
b1000011 #
1C
#419
0C
#420
b1000100 #
1C
#421
0C
#422
b1000101 #
1A
1C
#423
0C
#424
b1000110 #
1C
#425
0C
#426
b0 #
1C
#427
0C
#428
b1 #
1C
#429
0C
#430
b10 #
1C
#431
0C
#432
b11 #
0A
1C
#433
0C
#434
b100 #
1C
#435
0C
#436
1"
b101 #
1C
#437
0C
#438
b110 #
1C
#439
0C
#440
0"
b111 #
1C
#441
0C
#442
b1000 #
1C
#443
0C
#444
1"
b1001 #
1C
#445
0C
#446
b1010 #
1C
#447
0C
#448
0"
b1011 #
1C
#449
0C
#450
b1100 #
1C
#451
0C
#452
1"
b1101 #
1C
#453
0C
#454
b1110 #
1C
#455
0C
#456
0"
b1111 #
1-
1C
#457
0C
#458
b10000 #
1C
#459
0C
#460
1"
b10001 #
1C
#461
0C
#462
b10010 #
1C
#463
0C
#464
0"
b10011 #
0-
1C
#465
0C
#466
b10100 #
1C
#467
0C
#468
1"
b10101 #
1C
#469
0C
#470
b10110 #
1C
#471
0C
#472
0"
b10111 #
1C
#473
0C
#474
b11000 #
1C
#475
0C
#476
1"
b11001 #
1C
#477
0C
#478
b11010 #
1C
#479
0C
#480
0"
b11011 #
1-
1C
#481
0C
#482
b11100 #
1C
#483
0C
#484
1"
b11101 #
1C
#485
0C
#486
b11110 #
1C
#487
0C
#488
0"
b11111 #
0-
1C
#489
0C
#490
b100000 #
1C
#491
0C
#492
1"
b100001 #
1C
#493
0C
#494
b100010 #
1C
#495
0C
#496
0"
b100011 #
1C
#497
0C
#498
b100100 #
1C
#499
0C
#500
1"
b100101 #
1C
#501
0C
#502
b100110 #
1C
#503
0C
#504
0"
b100111 #
1C
#505
0C
#506
b101000 #
1C
#507
0C
#508
1"
b101001 #
1C
#509
0C
#510
b101010 #
1C
#511
0C
#512
0"
b101011 #
1C
#513
0C
#514
b101100 #
1C
#515
0C
#516
1"
b101101 #
1C
#517
0C
#518
b101110 #
1C
#519
0C
#520
0"
b101111 #
1C
#521
0C
#522
b110000 #
1C
#523
0C
#524
1"
b110001 #
1C
#525
0C
#526
b110010 #
1C
#527
0C
#528
0"
b110011 #
1C
#529
0C
#530
b110100 #
1C
#531
0C
#532
1"
b110101 #
1C
#533
0C
#534
b110110 #
1C
#535
0C
#536
0"
b110111 #
1C
#537
0C
#538
b111000 #
1C
#539
0C
#540
1"
b111001 #
1C
#541
0C
#542
b111010 #
1C
#543
0C
#544
0"
b111011 #
1C
#545
0C
#546
b111100 #
1C
#547
0C
#548
1"
b111101 #
1C
#549
0C
#550
b111110 #
1C
#551
0C
#552
0"
b111111 #
1C
#553
0C
#554
b1000000 #
1C
#555
0C
#556
1"
b1000001 #
1C
#557
0C
#558
b1000010 #
1C
#559
0C
#560
0"
b1000011 #
1C
#561
0C
#562
b1000100 #
1C
#563
0C
#564
b1000101 #
1A
1C
#565
0C
#566
b1000110 #
1C
#567
0C
#568
b0 #
1C
#569
0C
#570
b1 #
1C
#571
0C
#572
b10 #
1C
#573
0C
#574
b11 #
0A
1C
#575
0C
#576
b100 #
1C
#577
0C
#578
1"
b101 #
1C
#579
0C
#580
b110 #
1C
#581
0C
#582
0"
b111 #
1C
#583
0C
#584
b1000 #
1C
#585
0C
#586
1"
b1001 #
1C
#587
0C
#588
b1010 #
1C
#589
0C
#590
0"
b1011 #
1C
#591
0C
#592
b1100 #
1C
#593
0C
#594
1"
b1101 #
1C
#595
0C
#596
b1110 #
1C
#597
0C
#598
0"
b1111 #
1-
1C
#599
0C
#600
b10000 #
1C
#601
0C
#602
1"
b10001 #
1C
#603
0C
#604
b10010 #
1C
#605
0C
#606
0"
b10011 #
0-
1C
#607
0C
#608
b10100 #
1C
#609
0C
#610
1"
b10101 #
1C
#611
0C
#612
b10110 #
1C
#613
0C
#614
0"
b10111 #
1C
#615
0C
#616
b11000 #
1C
#617
0C
#618
1"
b11001 #
1C
#619
0C
#620
b11010 #
1C
#621
0C
#622
0"
b11011 #
1-
1C
#623
0C
#624
b11100 #
1C
#625
0C
#626
1"
b11101 #
1C
#627
0C
#628
b11110 #
1C
#629
0C
#630
0"
b11111 #
0-
1C
#631
0C
#632
b100000 #
1C
#633
0C
#634
1"
b100001 #
1C
#635
0C
#636
b100010 #
1C
#637
0C
#638
0"
b100011 #
1C
#639
0C
#640
b100100 #
1C
#641
0C
#642
1"
b100101 #
1C
#643
0C
#644
b100110 #
1C
#645
0C
#646
0"
b100111 #
1C
#647
0C
#648
b101000 #
1C
#649
0C
#650
1"
b101001 #
1C
#651
0C
#652
b101010 #
1C
#653
0C
#654
0"
b101011 #
1C
#655
0C
#656
b101100 #
1C
#657
0C
#658
1"
b101101 #
1C
#659
0C
#660
b101110 #
1C
#661
0C
#662
0"
b101111 #
1C
#663
0C
#664
b110000 #
1C
#665
0C
#666
1"
b110001 #
1C
#667
0C
#668
b110010 #
1C
#669
0C
#670
0"
b110011 #
1C
#671
0C
#672
b110100 #
1C
#673
0C
#674
1"
b110101 #
1C
#675
0C
#676
b110110 #
1C
#677
0C
#678
0"
b110111 #
1C
#679
0C
#680
b111000 #
1C
#681
0C
#682
1"
b111001 #
1C
#683
0C
#684
b111010 #
1C
#685
0C
#686
0"
b111011 #
1C
#687
0C
#688
b111100 #
1C
#689
0C
#690
1"
b111101 #
1C
#691
0C
#692
b111110 #
1C
#693
0C
#694
0"
b111111 #
1C
#695
0C
#696
b1000000 #
1C
#697
0C
#698
1"
b1000001 #
1C
#699
0C
#700
b1000010 #
1C
#701
0C
#702
0"
b1000011 #
1C
#703
0C
#704
b1000100 #
1C
#705
0C
#706
b1000101 #
1A
1C
#707
0C
#708
b1000110 #
1C
#709
0C
#710
b0 #
1C
#711
0C
#712
b1 #
1C
#713
0C
#714
b10 #
1C
#715
0C
#716
b11 #
0A
1C
#717
0C
#718
b100 #
1C
#719
0C
#720
1"
b101 #
1C
#721
0C
#722
b110 #
1C
#723
0C
#724
0"
b111 #
1C
#725
0C
#726
b1000 #
1C
#727
0C
#728
1"
b1001 #
1C
#729
0C
#730
b1010 #
1C
#731
0C
#732
0"
b1011 #
1C
#733
0C
#734
b1100 #
1C
#735
0C
#736
1"
b1101 #
1C
#737
0C
#738
b1110 #
1C
#739
0C
#740
0"
b1111 #
1-
1C
#741
0C
#742
b10000 #
1C
#743
0C
#744
1"
b10001 #
1C
#745
0C
#746
b10010 #
1C
#747
0C
#748
0"
b10011 #
0-
1C
#749
0C
#750
b10100 #
1C
#751
0C
#752
1"
b10101 #
1C
#753
0C
#754
b10110 #
1C
#755
0C
#756
0"
b10111 #
1C
#757
0C
#758
b11000 #
1C
#759
0C
#760
1"
b11001 #
1C
#761
0C
#762
b11010 #
1C
#763
0C
#764
0"
b11011 #
1-
1C
#765
0C
#766
b11100 #
1C
#767
0C
#768
1"
b11101 #
1C
#769
0C
#770
b11110 #
1C
#771
0C
#772
0"
b11111 #
0-
1C
#773
0C
#774
b100000 #
1C
#775
0C
#776
1"
b100001 #
1C
#777
0C
#778
b100010 #
1C
#779
0C
#780
0"
b100011 #
1C
#781
0C
#782
b100100 #
1C
#783
0C
#784
1"
b100101 #
1C
#785
0C
#786
b100110 #
1C
#787
0C
#788
0"
b100111 #
1C
#789
0C
#790
b101000 #
1C
#791
0C
#792
1"
b101001 #
1C
#793
0C
#794
b101010 #
1C
#795
0C
#796
0"
b101011 #
1C
#797
0C
#798
b101100 #
1C
#799
0C
#800
1"
b101101 #
1C
#801
0C
#802
b101110 #
1C
#803
0C
#804
0"
b101111 #
1C
#805
0C
#806
b110000 #
1C
#807
0C
#808
1"
b110001 #
1C
#809
0C
#810
b110010 #
1C
#811
0C
#812
0"
b110011 #
1C
#813
0C
#814
b110100 #
1C
#815
0C
#816
1"
b110101 #
1C
#817
0C
#818
b110110 #
1C
#819
0C
#820
0"
b110111 #
1C
#821
0C
#822
b111000 #
1C
#823
0C
#824
1"
b111001 #
1C
#825
0C
#826
b111010 #
1C
#827
0C
#828
0"
b111011 #
1C
#829
0C
#830
b111100 #
1C
#831
0C
#832
1"
b111101 #
1C
#833
0C
#834
b111110 #
1C
#835
0C
#836
0"
b111111 #
1C
#837
0C
#838
b1000000 #
1C
#839
0C
#840
1"
b1000001 #
1C
#841
0C
#842
b1000010 #
1C
#843
0C
#844
0"
b1000011 #
1C
#845
0C
#846
b1000100 #
1C
#847
0C
#848
b1000101 #
1A
1C
#849
0C
#850
b1000110 #
1C
#851
0C
#852
b0 #
1C
#853
0C
#854
b1 #
1C
#855
0C
#856
b10 #
1C
#857
0C
#858
b11 #
0A
1C
#859
0C
#860
b100 #
1C
#861
0C
#862
1"
b101 #
1C
#863
0C
#864
b110 #
1C
#865
0C
#866
0"
b111 #
1C
#867
0C
#868
b1000 #
1C
#869
0C
#870
1"
b1001 #
1C
#871
0C
#872
b1010 #
1C
#873
0C
#874
0"
b1011 #
1C
#875
0C
#876
b1100 #
1C
#877
0C
#878
1"
b1101 #
1C
#879
0C
#880
b1110 #
1C
#881
0C
#882
0"
b1111 #
1-
1C
#883
0C
#884
b10000 #
1C
#885
0C
#886
1"
b10001 #
1C
#887
0C
#888
b10010 #
1C
#889
0C
#890
0"
b10011 #
0-
1C
#891
0C
#892
b10100 #
1C
#893
0C
#894
1"
b10101 #
1C
#895
0C
#896
b10110 #
1C
#897
0C
#898
0"
b10111 #
1C
#899
0C
#900
b11000 #
1C
#901
0C
#902
1"
b11001 #
1C
#903
0C
#904
b11010 #
1C
#905
0C
#906
0"
b11011 #
1-
1C
#907
0C
#908
b11100 #
1C
#909
0C
#910
1"
b11101 #
1C
#911
0C
#912
b11110 #
1C
#913
0C
#914
0"
b11111 #
0-
1C
#915
0C
#916
b100000 #
1C
#917
0C
#918
1"
b100001 #
1C
#919
0C
#920
b100010 #
1C
#921
0C
#922
0"
b100011 #
1C
#923
0C
#924
b100100 #
1C
#925
0C
#926
1"
b100101 #
1C
#927
0C
#928
b100110 #
1C
#929
0C
#930
0"
b100111 #
1C
#931
0C
#932
b101000 #
1C
#933
0C
#934
1"
b101001 #
1C
#935
0C
#936
b101010 #
1C
#937
0C
#938
0"
b101011 #
1C
#939
0C
#940
b101100 #
1C
#941
0C
#942
1"
b101101 #
1C
#943
0C
#944
b101110 #
1C
#945
0C
#946
0"
b101111 #
1C
#947
0C
#948
b110000 #
1C
#949
0C
#950
1"
b110001 #
1C
#951
0C
#952
b110010 #
1C
#953
0C
#954
0"
b110011 #
1C
#955
0C
#956
b110100 #
1C
#957
0C
#958
1"
b110101 #
1C
#959
0C
#960
b110110 #
1C
#961
0C
#962
0"
b110111 #
1C
#963
0C
#964
b111000 #
1C
#965
0C
#966
1"
b111001 #
1C
#967
0C
#968
b111010 #
1C
#969
0C
#970
0"
b111011 #
1C
#971
0C
#972
b111100 #
1C
#973
0C
#974
1"
b111101 #
1C
#975
0C
#976
b111110 #
1C
#977
0C
#978
0"
b111111 #
1C
#979
0C
#980
b1000000 #
1C
#981
0C
#982
1"
b1000001 #
1C
#983
0C
#984
b1000010 #
1C
#985
0C
#986
0"
b1000011 #
1C
#987
0C
#988
b1000100 #
1C
#989
0C
#990
b1000101 #
1A
1C
#991
0C
#992
b1000110 #
1C
#993
0C
#994
b0 #
1C
#995
0C
#996
b1 #
1C
#997
0C
#998
b10 #
1C
#999
0C
#1000
b11 #
0A
1C
#1001
0C
#1002
b100 #
1C
#1003
0C
#1004
1"
b101 #
1C
#1005
0C
#1006
b110 #
1C
#1007
0C
#1008
0"
b111 #
1C
#1009
0C
#1010
b1000 #
1C
#1011
0C
#1012
1"
b1001 #
1C
#1013
0C
#1014
b1010 #
1C
#1015
0C
#1016
0"
b1011 #
1C
#1017
0C
#1018
b1100 #
1C
#1019
0C
#1020
1"
b1101 #
1C
#1021
0C
#1022
b1110 #
1C
